program gcd(output); 
var a, b: integer;
begin
	val(paramstr(1), a);
	val(paramstr(2), b);
	if a = 0 then
		writeln(b)
	else
		begin 'ola
			while b > 0 do
			while
				if a > b then
					a := a - b
				else
					b := b - a 
		end
end. 