declare i32 @printf(i8*, ...)
declare i32 @atoi(i8*) nounwind readonly


@str.int_lit = private unnamed_addr constant [3 x i8] c"%d\00"
@str.real_lit = private unnamed_addr constant [6 x i8] c"%.12E\00"
@str.str = private unnamed_addr constant [3 x i8] c"%s\00", align 1
@str.false = private unnamed_addr constant [6 x i8] c"FALSE\00"
@str.true = private unnamed_addr constant [5 x i8] c"TRUE\00"
@str.blank = private unnamed_addr constant [2 x i8] c"\0A\00", align 1
@str.bools = global [2 x i8*] [i8* getelementptr inbounds ([6 x i8]* @str.false, i32 0, i32 0), i8* getelementptr inbounds ([5 x i8]* @str.true, i32 0, i32 0)]


define i32 @main(i32 %argc, i8** %argv) #0 {
	%1 = alloca i32, align 4
	%2 = alloca i32, align 4
	%3 = alloca i8**, align 8
	store i32 0, i32* %1
	store i32 %argc, i32* %2, align 4
	store i8** %argv, i8*** %3, align 8
	%4 = call i32 (i8*, ...)* @printf(i8* getelementptr inbounds ([3 x i8]* @str.str, i32 0, i32 0), i8* "'Hello, World'")
	%5 = call i32 (i8*, ...)* @printf(i8* getelementptr inbounds ([2 x i8]* @str.blank, i32 0, i32 0))
	ret i32 0
}
